<?xml version="1.0" encoding="UTF-8"?>
<robot generator="Robot 6.0 (Python 3.12.3 on win32)" generated="20240515 10:33:46.942" rpa="false" schemaversion="3">
<suite id="s1" name="Get Call test" source="E:\ROBOAPI\Tests\Get_Call_test.robot">
<test id="s1-t1" name="Test 1" line="13">
<kw name="Create Session" library="RequestsLibrary">
<arg>Session1</arg>
<arg>${base_url}</arg>
<arg>disable_warnings=1</arg>
<doc>Create Session: create a HTTP session to a server</doc>
<msg timestamp="20240515 10:33:47.396" level="INFO">Creating Session using : alias=Session1, url=https://reqres.in/, headers={},                     cookies={}, auth=None, timeout=None, proxies=None, verify=False,                     debug=0 </msg>
<status status="PASS" starttime="20240515 10:33:47.396" endtime="20240515 10:33:47.396"/>
</kw>
<kw name="Set Variable" library="BuiltIn">
<var>${endpoint}</var>
<arg>api/users?page=2</arg>
<doc>Returns the given values which can then be assigned to a variables.</doc>
<msg timestamp="20240515 10:33:47.396" level="INFO">${endpoint} = api/users?page=2</msg>
<status status="PASS" starttime="20240515 10:33:47.396" endtime="20240515 10:33:47.396"/>
</kw>
<kw name="GET On Session" library="RequestsLibrary">
<var>${response}</var>
<arg>Session1</arg>
<arg>${endpoint}</arg>
<doc>Sends a GET request on a previously created HTTP Session.</doc>
<msg timestamp="20240515 10:33:48.915" level="INFO">GET Request : url=https://reqres.in/api/users?page=2 
 path_url=/api/users?page=2 
 headers={'User-Agent': 'python-requests/2.31.0', 'Accept-Encoding': 'gzip, deflate', 'Accept': '*/*', 'Connection': 'keep-alive'} 
 body=None 
 </msg>
<msg timestamp="20240515 10:33:48.915" level="INFO">GET Response : url=https://reqres.in/api/users?page=2 
 status=200, reason=OK 
 headers={'Date': 'Wed, 15 May 2024 05:03:48 GMT', 'Content-Type': 'application/json; charset=utf-8', 'Transfer-Encoding': 'chunked', 'Connection': 'keep-alive', 'Report-To': '{"group":"heroku-nel","max_age":3600,"endpoints":[{"url":"https://nel.heroku.com/reports?ts=1715665563&amp;sid=c4c9725f-1ab0-44d8-820f-430df2718e11&amp;s=d%2FQ4A5FPAIvc%2F3ILWZFCBjg00q8wWKgFR3GlnTeb8yg%3D"}]}', 'Reporting-Endpoints': 'heroku-nel=https://nel.heroku.com/reports?ts=1715665563&amp;sid=c4c9725f-1ab0-44d8-820f-430df2718e11&amp;s=d%2FQ4A5FPAIvc%2F3ILWZFCBjg00q8wWKgFR3GlnTeb8yg%3D', 'Nel': '{"report_to":"heroku-nel","max_age":3600,"success_fraction":0.005,"failure_fraction":0.05,"response_headers":["Via"]}', 'X-Powered-By': 'Express', 'Access-Control-Allow-Origin': '*', 'Etag': 'W/"406-ut0vzoCuidvyMf8arZpMpJ6ZRDw"', 'Via': '1.1 vegur', 'Cache-Control': 'max-age=14400', 'CF-Cache-Status': 'HIT', 'Age': '5606', 'Vary': 'Accept-Encoding', 'Server': 'cloudflare', 'CF-RAY': '884095669b5c919a-DEL', 'Content-Encoding': 'gzip'} 
 body={"page":2,"per_page":6,"total":12,"total_pages":2,"data":[{"id":7,"email":"michael.lawson@reqres.in","first_name":"Michael","last_name":"Lawson","avatar":"https://reqres.in/img/faces/7-image.jpg"},{"id":8,"email":"lindsay.ferguson@reqres.in","first_name":"Lindsay","last_name":"Ferguson","avatar":"https://reqres.in/img/faces/8-image.jpg"},{"id":9,"email":"tobias.funke@reqres.in","first_name":"Tobias","last_name":"Funke","avatar":"https://reqres.in/img/faces/9-image.jpg"},{"id":10,"email":"byron.fields@reqres.in","first_name":"Byron","last_name":"Fields","avatar":"https://reqres.in/img/faces/10-image.jpg"},{"id":11,"email":"george.edwards@reqres.in","first_name":"George","last_name":"Edwards","avatar":"https://reqres.in/img/faces/11-image.jpg"},{"id":12,"email":"rachel.howell@reqres.in","first_name":"Rachel","last_name":"Howell","avatar":"https://reqres.in/img/faces/12-image.jpg"}],"support":{"url":"https://reqres.in/#support-heading","text":"To keep ReqRes free, contributions towards server costs are appreciated!"}} 
 </msg>
<msg timestamp="20240515 10:33:48.915" level="INFO">${response} = &lt;Response [200]&gt;</msg>
<status status="PASS" starttime="20240515 10:33:47.396" endtime="20240515 10:33:48.915"/>
</kw>
<kw name="Log To Console" library="BuiltIn">
<arg>${response.headers}</arg>
<doc>Logs the given message to the console.</doc>
<status status="PASS" starttime="20240515 10:33:48.915" endtime="20240515 10:33:48.931"/>
</kw>
<kw name="Log To Console" library="BuiltIn">
<arg>${response.content}</arg>
<doc>Logs the given message to the console.</doc>
<status status="PASS" starttime="20240515 10:33:48.931" endtime="20240515 10:33:48.931"/>
</kw>
<kw name="Log To Console" library="BuiltIn">
<arg>${response.status_code}</arg>
<doc>Logs the given message to the console.</doc>
<status status="PASS" starttime="20240515 10:33:48.931" endtime="20240515 10:33:48.931"/>
</kw>
<kw name="Log" library="BuiltIn">
<arg>${response.headers}</arg>
<doc>Logs the given message with the given level.</doc>
<msg timestamp="20240515 10:33:48.931" level="INFO">{'Date': 'Wed, 15 May 2024 05:03:48 GMT', 'Content-Type': 'application/json; charset=utf-8', 'Transfer-Encoding': 'chunked', 'Connection': 'keep-alive', 'Report-To': '{"group":"heroku-nel","max_age":3600,"endpoints":[{"url":"https://nel.heroku.com/reports?ts=1715665563&amp;sid=c4c9725f-1ab0-44d8-820f-430df2718e11&amp;s=d%2FQ4A5FPAIvc%2F3ILWZFCBjg00q8wWKgFR3GlnTeb8yg%3D"}]}', 'Reporting-Endpoints': 'heroku-nel=https://nel.heroku.com/reports?ts=1715665563&amp;sid=c4c9725f-1ab0-44d8-820f-430df2718e11&amp;s=d%2FQ4A5FPAIvc%2F3ILWZFCBjg00q8wWKgFR3GlnTeb8yg%3D', 'Nel': '{"report_to":"heroku-nel","max_age":3600,"success_fraction":0.005,"failure_fraction":0.05,"response_headers":["Via"]}', 'X-Powered-By': 'Express', 'Access-Control-Allow-Origin': '*', 'Etag': 'W/"406-ut0vzoCuidvyMf8arZpMpJ6ZRDw"', 'Via': '1.1 vegur', 'Cache-Control': 'max-age=14400', 'CF-Cache-Status': 'HIT', 'Age': '5606', 'Vary': 'Accept-Encoding', 'Server': 'cloudflare', 'CF-RAY': '884095669b5c919a-DEL', 'Content-Encoding': 'gzip'}</msg>
<status status="PASS" starttime="20240515 10:33:48.931" endtime="20240515 10:33:48.931"/>
</kw>
<kw name="Convert To String" library="BuiltIn">
<var>${status_code}</var>
<arg>${response.status_code}</arg>
<doc>Converts the given item to a Unicode string.</doc>
<msg timestamp="20240515 10:33:48.931" level="INFO">${status_code} = 200</msg>
<status status="PASS" starttime="20240515 10:33:48.931" endtime="20240515 10:33:48.931"/>
</kw>
<kw name="Should Be Equal" library="BuiltIn">
<arg>${status_code}</arg>
<arg>200</arg>
<doc>Fails if the given objects are unequal.</doc>
<status status="PASS" starttime="20240515 10:33:48.931" endtime="20240515 10:33:48.931"/>
</kw>
<kw name="Convert String To Json" library="JSONLibrary">
<var>${json_response}</var>
<arg>${response.content}</arg>
<doc>Convert String to JSON object</doc>
<msg timestamp="20240515 10:33:48.931" level="INFO">${json_response} = {'page': 2, 'per_page': 6, 'total': 12, 'total_pages': 2, 'data': [{'id': 7, 'email': 'michael.lawson@reqres.in', 'first_name': 'Michael', 'last_name': 'Lawson', 'avatar': 'https://reqres.in/img/faces...</msg>
<status status="PASS" starttime="20240515 10:33:48.931" endtime="20240515 10:33:48.931"/>
</kw>
<kw name="Get Value From Json" library="JSONLibrary">
<var>${contents}</var>
<arg>${json_response}</arg>
<arg>${page_path}</arg>
<doc>Get Value From JSON using JSONPath</doc>
<msg timestamp="20240515 10:33:49.103" level="INFO">${contents} = [2]</msg>
<status status="PASS" starttime="20240515 10:33:48.931" endtime="20240515 10:33:49.103"/>
</kw>
<kw name="Convert To String" library="BuiltIn">
<var>${contents}</var>
<arg>${contents}</arg>
<doc>Converts the given item to a Unicode string.</doc>
<msg timestamp="20240515 10:33:49.103" level="INFO">${contents} = [2]</msg>
<status status="PASS" starttime="20240515 10:33:49.103" endtime="20240515 10:33:49.103"/>
</kw>
<kw name="Remove String Using Regexp" library="String">
<var>${contents}</var>
<arg>${contents}</arg>
<arg>['\\[\\],]</arg>
<doc>Removes ``patterns`` from the given ``string``.</doc>
<msg timestamp="20240515 10:33:49.103" level="INFO">${contents} = 2</msg>
<status status="PASS" starttime="20240515 10:33:49.103" endtime="20240515 10:33:49.103"/>
</kw>
<kw name="Should Be Equal" library="BuiltIn">
<arg>${contents}</arg>
<arg>2</arg>
<doc>Fails if the given objects are unequal.</doc>
<status status="PASS" starttime="20240515 10:33:49.103" endtime="20240515 10:33:49.103"/>
</kw>
<kw name="Get From Dictionary" library="Collections">
<var>${headerValue}</var>
<arg>${response.headers}</arg>
<arg>Content-Type</arg>
<doc>Returns a value from the given ``dictionary`` based on the given ``key``.</doc>
<msg timestamp="20240515 10:33:49.103" level="INFO">${headerValue} = application/json; charset=utf-8</msg>
<status status="PASS" starttime="20240515 10:33:49.103" endtime="20240515 10:33:49.103"/>
</kw>
<kw name="Should Be Equal" library="BuiltIn">
<arg>${headerValue}</arg>
<arg>application/json; charset=utf-8</arg>
<doc>Fails if the given objects are unequal.</doc>
<status status="PASS" starttime="20240515 10:33:49.103" endtime="20240515 10:33:49.103"/>
</kw>
<kw name="Get From Dictionary" library="Collections">
<var>${ServerValue}</var>
<arg>${response.headers}</arg>
<arg>Server</arg>
<doc>Returns a value from the given ``dictionary`` based on the given ``key``.</doc>
<msg timestamp="20240515 10:33:49.103" level="INFO">${ServerValue} = cloudflare</msg>
<status status="PASS" starttime="20240515 10:33:49.103" endtime="20240515 10:33:49.103"/>
</kw>
<kw name="Should Be Equal" library="BuiltIn">
<arg>${ServerValue}</arg>
<arg>cloudflare</arg>
<doc>Fails if the given objects are unequal.</doc>
<status status="PASS" starttime="20240515 10:33:49.103" endtime="20240515 10:33:49.103"/>
</kw>
<tag>Demo</tag>
<status status="PASS" starttime="20240515 10:33:47.396" endtime="20240515 10:33:49.103"/>
</test>
<status status="PASS" starttime="20240515 10:33:46.942" endtime="20240515 10:33:49.103"/>
</suite>
<statistics>
<total>
<stat pass="1" fail="0" skip="0">All Tests</stat>
</total>
<tag>
<stat pass="1" fail="0" skip="0">Demo</stat>
</tag>
<suite>
<stat pass="1" fail="0" skip="0" id="s1" name="Get Call test">Get Call test</stat>
</suite>
</statistics>
<errors>
</errors>
</robot>
